…
Data preprocessing
------------------

``` r
(cafe_raw <- read_csv("data/cafe.csv"))
```

    ## # A tibble: 155 x 7
    ##    date       cafe_type party_size gender in_time out_time end_of_study
    ##    <date>     <chr>          <dbl> <chr>  <time>  <time>   <time>      
    ##  1 2017-11-17 in_univ            4 male   13:55   14:21    17:35       
    ##  2 2017-11-17 in_univ            2 male   14:21   15:08    17:35       
    ##  3 2017-11-17 in_univ            1 female 14:26   15:00    17:35       
    ##  4 2017-11-17 in_univ            2 mixed  14:27   14:49    17:35       
    ##  5 2017-11-17 in_univ            2 mixed  14:29   16:49    17:35       
    ##  6 2017-11-17 in_univ            3 female 14:33   15:22    17:35       
    ##  7 2017-11-17 in_univ            2 female 14:35   15:32    17:35       
    ##  8 2017-11-17 in_univ            6 mixed  14:37   14:59    17:35       
    ##  9 2017-11-17 in_univ            2 female 14:38   17:31    17:35       
    ## 10 2017-11-17 in_univ            1 female 14:40   15:44    17:35       
    ## # ... with 145 more rows

``` r
(cafe <- 
  cafe_raw %>% 
  mutate(x = (out_time - in_time) %>% as.numeric(units = "mins"),
         c = (end_of_study - in_time) %>% as.numeric(units = "mins"),
         event_time = minimum(x, c, na.rm = TRUE),
         delta = 1 - is.na(x)) %>% 
  select(event_time, delta, cafe_type))
```

    ## # A tibble: 155 x 3
    ##    event_time delta cafe_type
    ##         <dbl> <dbl> <chr>    
    ##  1         26     1 in_univ  
    ##  2         47     1 in_univ  
    ##  3         34     1 in_univ  
    ##  4         22     1 in_univ  
    ##  5        140     1 in_univ  
    ##  6         49     1 in_univ  
    ##  7         57     1 in_univ  
    ##  8         22     1 in_univ  
    ##  9        173     1 in_univ  
    ## 10         64     1 in_univ  
    ## # ... with 145 more rows
…
